rtl/Bit Counter/simulation/qsim/bitCounter.msim.vcd
$comment
	File created using the following command:
		vcd file bitCounter.msim.vcd -direction
$end
$date
	Tue Jun 20 15:59:00 2017
$end
$version
	ModelSim Version 10.4d
$end
$timescale
	1ps
$end

$scope module bitCounter_vlg_vec_tst $end
$var reg 32 ! DataIn [31:0] $end
$var reg 1 " Valid $end
$var reg 1 # clk $end
$var reg 1 $ rst $end
$var wire 1 % DataOut [31] $end
$var wire 1 & DataOut [30] $end
$var wire 1 ' DataOut [29] $end
$var wire 1 ( DataOut [28] $end
$var wire 1 ) DataOut [27] $end
$var wire 1 * DataOut [26] $end
$var wire 1 + DataOut [25] $end
$var wire 1 , DataOut [24] $end
$var wire 1 - DataOut [23] $end
$var wire 1 . DataOut [22] $end
$var wire 1 / DataOut [21] $end
$var wire 1 0 DataOut [20] $end
$var wire 1 1 DataOut [19] $end
$var wire 1 2 DataOut [18] $end
$var wire 1 3 DataOut [17] $end
$var wire 1 4 DataOut [16] $end
$var wire 1 5 DataOut [15] $end
$var wire 1 6 DataOut [14] $end
$var wire 1 7 DataOut [13] $end
$var wire 1 8 DataOut [12] $end
$var wire 1 9 DataOut [11] $end
$var wire 1 : DataOut [10] $end
$var wire 1 ; DataOut [9] $end
$var wire 1 < DataOut [8] $end
$var wire 1 = DataOut [7] $end
$var wire 1 > DataOut [6] $end
$var wire 1 ? DataOut [5] $end
$var wire 1 @ DataOut [4] $end
$var wire 1 A DataOut [3] $end
$var wire 1 B DataOut [2] $end
$var wire 1 C DataOut [1] $end
$var wire 1 D DataOut [0] $end
$var wire 1 E Ready $end

$scope module i1 $end
$var wire 1 F gnd $end
$var wire 1 G vcc $end
$var wire 1 H unknown $end
$var tri1 1 I devclrn $end
$var tri1 1 J devpor $end
$var tri1 1 K devoe $end
$var wire 1 L Ready~output_o $end
$var wire 1 M DataOut[0]~output_o $end
$var wire 1 N DataOut[1]~output_o $end
$var wire 1 O DataOut[2]~output_o $end
$var wire 1 P DataOut[3]~output_o $end
$var wire 1 Q DataOut[4]~output_o $end
$var wire 1 R DataOut[5]~output_o $end
$var wire 1 S DataOut[6]~output_o $end
$var wire 1 T DataOut[7]~output_o $end
$var wire 1 U DataOut[8]~output_o $end
$var wire 1 V DataOut[9]~output_o $end
$var wire 1 W DataOut[10]~output_o $end
$var wire 1 X DataOut[11]~output_o $end
$var wire 1 Y DataOut[12]~output_o $end
$var wire 1 Z DataOut[13]~output_o $end
$var wire 1 [ DataOut[14]~output_o $end
$var wire 1 \ DataOut[15]~output_o $end
$var wire 1 ] DataOut[16]~output_o $end
$var wire 1 ^ DataOut[17]~output_o $end
$var wire 1 _ DataOut[18]~output_o $end
$var wire 1 ` DataOut[19]~output_o $end
$var wire 1 a DataOut[20]~output_o $end
$var wire 1 b DataOut[21]~output_o $end
$var wire 1 c DataOut[22]~output_o $end
$var wire 1 d DataOut[23]~output_o $end
$var wire 1 e DataOut[24]~output_o $end
$var wire 1 f DataOut[25]~output_o $end
$var wire 1 g DataOut[26]~output_o $end
$var wire 1 h DataOut[27]~output_o $end
$var wire 1 i DataOut[28]~output_o $end
$var wire 1 j DataOut[29]~output_o $end
$var wire 1 k DataOut[30]~output_o $end
$var wire 1 l DataOut[31]~output_o $end
$var wire 1 m clk~input_o $end
$var wire 1 n rst~input_o $end
$var wire 1 o posCounter~3_combout $end
$var wire 1 p Valid~input_o $end
$var wire 1 q posCounter[1]~1_combout $end
$var wire 1 r posCounter~4_combout $end
$var wire 1 s posCounter~5_combout $end
$var wire 1 t LessThan0~1_combout $end
$var wire 1 u posCounter~2_combout $end
$var wire 1 v posCounter~0_combout $end
$var wire 1 w LessThan0~0_combout $end
$var wire 1 x Ready~0_combout $end
$var wire 1 y Ready~reg0_q $end
$var wire 1 z DataIn[5]~input_o $end
$var wire 1 { word[11]~0_combout $end
$var wire 1 | DataIn[7]~input_o $end
$var wire 1 } DataIn[6]~input_o $end
$var wire 1 ~ DataIn[1]~input_o $end
$var wire 1 !! DataIn[3]~input_o $end
$var wire 1 "! DataIn[2]~input_o $end
$var wire 1 #! DataIn[0]~input_o $end
$var wire 1 $! Mux0~17_combout $end
$var wire 1 %! DataIn[4]~input_o $end
$var wire 1 &! Mux0~0_combout $end
$var wire 1 '! DataIn[13]~input_o $end
$var wire 1 (! DataIn[15]~input_o $end
$var wire 1 )! DataIn[14]~input_o $end
$var wire 1 *! DataIn[9]~input_o $end
$var wire 1 +! DataIn[11]~input_o $end
$var wire 1 ,! DataIn[10]~input_o $end
$var wire 1 -! DataIn[8]~input_o $end
$var wire 1 .! Mux0~21_combout $end
$var wire 1 /! DataIn[12]~input_o $end
$var wire 1 0! Mux0~4_combout $end
$var wire 1 1! DataIn[21]~input_o $end
$var wire 1 2! DataIn[23]~input_o $end
$var wire 1 3! DataIn[22]~input_o $end
$var wire 1 4! DataIn[17]~input_o $end
$var wire 1 5! DataIn[19]~input_o $end
$var wire 1 6! DataIn[18]~input_o $end
$var wire 1 7! DataIn[16]~input_o $end
$var wire 1 8! Mux0~25_combout $end
$var wire 1 9! DataIn[20]~input_o $end
$var wire 1 :! Mux0~8_combout $end
$var wire 1 ;! DataIn[29]~input_o $end
$var wire 1 <! DataIn[31]~input_o $end
$var wire 1 =! DataIn[30]~input_o $end
$var wire 1 >! DataIn[25]~input_o $end
$var wire 1 ?! DataIn[27]~input_o $end
$var wire 1 @! DataIn[26]~input_o $end
$var wire 1 A! DataIn[24]~input_o $end
$var wire 1 B! Mux0~29_combout $end
$var wire 1 C! DataIn[28]~input_o $end
$var wire 1 D! Mux0~12_combout $end
$var wire 1 E! Mux0~16_combout $end
$var wire 1 F! Add1~1_sumout $end
$var wire 1 G! counterBits[0]~_wirecell_combout $end
$var wire 1 H! counterBits[0]~0_combout $end
$var wire 1 I! counterBits[0]~1_combout $end
$var wire 1 J! DataOut~0_combout $end
$var wire 1 K! DataOut[0]~1_combout $end
$var wire 1 L! DataOut[0]~reg0_q $end
$var wire 1 M! Add1~2 $end
$var wire 1 N! Add1~5_sumout $end
$var wire 1 O! Add2~0_combout $end
$var wire 1 P! DataOut~2_combout $end
$var wire 1 Q! DataOut[1]~reg0_q $end
$var wire 1 R! Add1~6 $end
$var wire 1 S! Add1~9_sumout $end
$var wire 1 T! Add2~1_combout $end
$var wire 1 U! DataOut~3_combout $end
$var wire 1 V! DataOut[2]~reg0_q $end
$var wire 1 W! Add1~10 $end
$var wire 1 X! Add1~13_sumout $end
$var wire 1 Y! Add2~2_combout $end
$var wire 1 Z! DataOut~4_combout $end
$var wire 1 [! DataOut[3]~reg0_q $end
$var wire 1 \! Add1~14 $end
$var wire 1 ]! Add1~17_sumout $end
$var wire 1 ^! Add2~3_combout $end
$var wire 1 _! DataOut~5_combout $end
$var wire 1 `! DataOut[4]~reg0_q $end
$var wire 1 a! Add1~18 $end
$var wire 1 b! Add1~21_sumout $end
$var wire 1 c! Add2~4_combout $end
$var wire 1 d! DataOut~6_combout $end
$var wire 1 e! DataOut[5]~reg0_q $end
$var wire 1 f! posCounter [5] $end
$var wire 1 g! posCounter [4] $end
$var wire 1 h! posCounter [3] $end
$var wire 1 i! posCounter [2] $end
$var wire 1 j! posCounter [1] $end
$var wire 1 k! posCounter [0] $end
$var wire 1 l! word [31] $end
$var wire 1 m! word [30] $end
$var wire 1 n! word [29] $end
$var wire 1 o! word [28] $end
$var wire 1 p! word [27] $end
$var wire 1 q! word [26] $end
$var wire 1 r! word [25] $end
$var wire 1 s! word [24] $end
$var wire 1 t! word [23] $end
$var wire 1 u! word [22] $end
$var wire 1 v! word [21] $end
$var wire 1 w! word [20] $end
$var wire 1 x! word [19] $end
$var wire 1 y! word [18] $end
$var wire 1 z! word [17] $end
$var wire 1 {! word [16] $end
$var wire 1 |! word [15] $end
$var wire 1 }! word [14] $end
$var wire 1 ~! word [13] $end
$var wire 1 !" word [12] $end
$var wire 1 "" word [11] $end
$var wire 1 #" word [10] $end
$var wire 1 $" word [9] $end
$var wire 1 %" word [8] $end
$var wire 1 &" word [7] $end
$var wire 1 '" word [6] $end
$var wire 1 (" word [5] $end
$var wire 1 )" word [4] $end
$var wire 1 *" word [3] $end
$var wire 1 +" word [2] $end
$var wire 1 ," word [1] $end
$var wire 1 -" word [0] $end
$var wire 1 ." counterBits [5] $end
$var wire 1 /" counterBits [4] $end
$var wire 1 0" counterBits [3] $end
$var wire 1 1" counterBits [2] $end
$var wire 1 2" counterBits [1] $end
$var wire 1 3" counterBits [0] $end
$upscope $end
$upscope $end
$enddefinitions $end
#0
$dumpvars
b0 !
0"
0#
1$
0D
0C
0B
0A
0@
0?
0>
0=
0<
0;
0:
09
08
07
06
05
04
03
02
01
00
0/
0.
0-
0,
0+
0*
0)
0(
0'
0&
0%
0E
0F
1G
xH
1I
1J
1K
0L
0M
0N
0O
0P
0Q
0R
0S
0T
0U
0V
0W
0X
0Y
0Z
0[
0\
0]
0^
0_
0`
0a
0b
0c
0d
0e
0f
0g
0h
0i
0j
0k
0l
0m
1n
0o
0p
1q
0r
0s
0t
0u
0v
0w
0x
0y
0z
1{
0|
0}
0~
0!!
0"!
0#!
0$!
0%!
0&!
0'!
0(!
0)!
0*!
0+!
0,!
0-!
0.!
0/!
00!
01!
02!
03!
04!
05!
06!
07!
08!
09!
0:!
0;!
0<!
0=!
0>!
0?!
0@!
0A!
0B!
0C!
0D!
0E!
0F!
1G!
1H!
1I!
0J!
1K!
0L!
0M!
0N!
0O!
0P!
0Q!
0R!
0S!
0T!
0U!
0V!
0W!
0X!
0Y!
0Z!
0[!
0\!
0]!
0^!
0_!
0`!
0a!
0b!
0c!
0d!
0e!
0k!
0j!
0i!
0h!
0g!
zf!
0-"
0,"
0+"
0*"
0)"
0("
0'"
0&"
0%"
0$"
0#"
0""
0!"
0~!
0}!
0|!
0{!
0z!
0y!
0x!
0w!
0v!
0u!
0t!
0s!
0r!
0q!
0p!
0o!
0n!
0m!
0l!
03"
02"
01"
00"
0/"
0."
$end
#5000
1#
1m
1y
1L
1E
1x
#10000
0$
0#
0n
0m
0K!
0I!
0{
0q
#15000
1#
1m
#20000
1"
b10000000000000000000000000000000 !
b10000000000100000000000000000000 !
b10000000000100000001000000000000 !
b10000000000100000001000001000000 !
b10000000000100000001000001001000 !
0#
1p
1!!
1}
1/!
19!
1<!
0m
1I!
1{
1q
0x
#25000
1#
1m
1l!
1w!
1!"
1*"
1'"
0y
0L
0H!
0{
0E
1o
#30000
0"
0#
0p
0m
#35000
1#
1m
1k!
1r
0o
#40000
0#
0m
#45000
1#
1m
1j!
0k!
1o
#50000
0#
0m
#55000
1#
1m
1k!
1$!
1s
0r
0o
1&!
1E!
1F!
#60000
0#
0m
#65000
1#
1m
13"
1i!
0j!
0k!
0$!
1:!
10!
0&!
1O!
0G!
1M!
1o
1J!
0F!
0E!
1N!
0M!
1F!
0N!
#70000
0#
0m
#75000
1#
1m
1k!
1B!
18!
1.!
1$!
1r
0o
00!
0:!
#80000
0#
0m
#85000
1#
1m
1j!
0k!
0B!
08!
0.!
0$!
1D!
1o
1&!
0D!
1E!
1M!
0F!
1N!
#90000
0#
0m
#95000
1#
1m
12"
03"
1k!
1B!
18!
1.!
1$!
1t
1G!
0M!
1R!
0s
0r
0o
0J!
1F!
1P!
0N!
0R!
0&!
1D!
1N!
1S!
1u
0E!
0S!
0F!
#100000
0#
0m
#105000
1#
1m
1h!
0i!
0j!
0k!
0B!
08!
0.!
0$!
0t
1:!
10!
1&!
1o
1v
0u
1E!
0&!
00!
0:!
0D!
0v
1u
0E!
1F!
0F!
#110000
0#
0m
#115000
1#
1m
1k!
1r
0o
#120000
0#
0m
#125000
1#
1m
1j!
0k!
1o
#130000
0#
0m
#135000
1#
1m
1k!
1$!
1s
0r
0o
1&!
#140000
0#
0m
#145000
1#
1m
1i!
0j!
0k!
0$!
1:!
10!
0&!
1o
1E!
1F!
#150000
0#
0m
#155000
1#
1m
13"
1k!
1B!
18!
1.!
1$!
1T!
0O!
0G!
1M!
1r
0o
1J!
0F!
1R!
00!
0:!
0N!
0E!
1S!
0M!
1F!
0R!
1N!
0S!
#160000
0#
0m
#165000
1#
1m
1j!
0k!
0B!
08!
0.!
0$!
1D!
1o
1&!
0D!
#170000
0#
0m
#175000
1#
1m
1k!
1B!
18!
1.!
1$!
1t
0s
0r
0o
0&!
1D!
1v
0u
#180000
0#
0m
#185000
1#
1m
1g!
0h!
0i!
0j!
0k!
0B!
08!
0.!
0$!
0t
1:!
10!
1&!
1o
1u
1E!
0&!
00!
0:!
0D!
0u
0E!
1M!
0F!
1R!
0M!
0N!
1F!
0R!
1S!
1N!
0S!
#190000
0#
0m
#195000
1#
1m
1k!
1r
0o
#200000
0#
0m
#205000
1#
1m
1j!
0k!
1o
#210000
0#
0m
#215000
1#
1m
1k!
1$!
1s
0r
0o
1&!
#220000
0#
0m
#225000
1#
1m
1i!
0j!
0k!
0$!
1:!
10!
0&!
1o
1E!
1M!
0F!
1R!
0N!
1S!
#230000
0#
0m
#235000
1#
1m
11"
02"
03"
1k!
1B!
18!
1.!
1$!
1G!
0M!
0R!
1W!
1r
0o
0J!
1F!
0P!
1N!
1U!
0S!
0W!
00!
0:!
0N!
1S!
1X!
0E!
0X!
0F!
#240000
0#
0m
#245000
1#
1m
1j!
0k!
0B!
08!
0.!
0$!
1D!
1o
1&!
0D!
#250000
0#
0m
#255000
1#
1m
1k!
1B!
18!
1.!
1$!
1t
0s
0r
0o
0&!
1D!
1u
#260000
0#
0m
#265000
1#
1m
1h!
0i!
0j!
0k!
0B!
08!
0.!
0$!
0t
1:!
10!
1&!
1E!
1o
0v
0u
0&!
00!
0:!
0D!
1F!
1v
1u
0E!
0F!
#270000
0#
0m
#275000
1#
1m
1k!
1r
0o
#280000
0#
0m
#285000
1#
1m
1j!
0k!
1o
#290000
0#
0m
#295000
1#
1m
1k!
1$!
1s
0r
0o
1&!
#300000
0#
0m
#305000
1#
1m
1i!
0j!
0k!
0$!
1:!
10!
0&!
1o
#310000
0#
0m
#315000
1#
1m
1k!
1B!
18!
1.!
1$!
1r
0o
00!
0:!
#320000
b100000001000001001000 !
0#
0<!
0m
#325000
1#
1m
1j!
0k!
0B!
08!
0.!
0$!
1D!
1o
1E!
1&!
0D!
0E!
1F!
0F!
#330000
0#
0m
#335000
1#
1m
1k!
1B!
18!
1.!
1$!
1w
1t
0s
0r
0o
1K!
0I!
1H!
0&!
1D!
0v
0u
1x
1E!
1F!
#340000
0#
0m
#345000
1#
1m
0g!
0h!
0i!
0j!
0k!
1V!
1y
1L
1O
0B!
08!
0.!
0$!
0w
0t
1:!
10!
1&!
0E!
0K!
0q
1B
1E
1E!
0&!
00!
0:!
0D!
0F!
0E!
1F!
0F!
#350000
0#
0m
#355000
1#
1m
#360000
0#
0m
#365000
1#
1m
#370000
0#
0m
#375000
1#
1m
#380000
0#
0m
#385000
1#
1m
#390000
1"
0#
1p
0m
1I!
1{
1q
0x
#395000
1#
1m
01"
0l!
0y
0L
0H!
0T!
0{
0E
0U!
0S!
1o
#400000
0#
0m
#405000
1#
1m
13"
1k!
1O!
0G!
1r
0o
1J!
1F!
#410000
0#
0m
#415000
1#
1m
12"
03"
1j!
0k!
1G!
1o
0J!
0F!
1P!
1N!
#420000
0#
0m
#425000
1#
1m
13"
1k!
1$!
1T!
0O!
0G!
1s
0r
0o
1J!
1F!
1&!
1E!
0I!
1H!
1M!
0F!
1R!
0N!
1S!
#430000
0"
0#
0p
0m
#435000
1#
1m
1i!
0j!
0k!
0$!
1:!
10!
0&!
1o
0E!
1I!
0H!
0M!
1F!
0R!
1N!
0S!
#440000
0#
0m
#445000
1#
1m
11"
02"
03"
1k!
1B!
18!
1.!
1$!
1G!
1r
0o
0J!
0F!
0P!
0N!
1U!
1S!
00!
0:!
#450000
0#
0m
#455000
1#
1m
13"
1j!
0k!
0B!
08!
0.!
0$!
1O!
0G!
1o
1J!
1F!
1&!
1E!
0I!
1H!
1M!
0F!
1N!
#460000
0#
0m
#465000
1#
1m
1k!
1B!
18!
1.!
1$!
1t
0s
0r
0o
0&!
1u
0E!
1I!
0H!
0M!
1F!
0N!
#470000
0#
0m
#475000
1#
1m
12"
03"
1h!
0i!
0j!
0k!
0B!
08!
0.!
0$!
0t
1D!
1:!
10!
1&!
1G!
1o
1v
0u
0J!
0F!
1P!
1N!
1E!
0&!
00!
0:!
0D!
0v
1u
0E!
0I!
1H!
1F!
1I!
0H!
0F!
#480000
0#
0m
#485000
1#
1m
13"
1k!
1Y!
0T!
0O!
0G!
1r
0o
1J!
1F!
#490000
0#
0m
#495000
1#
1m
10"
01"
02"
03"
1j!
0k!
1G!
1o
0J!
0F!
0P!
0N!
0U!
0S!
1Z!
1X!
#500000
0#
0m
#505000
1#
1m
13"
1k!
1$!
1O!
0G!
1s
0r
0o
1J!
1F!
1&!
#510000
0#
0m
#515000
1#
1m
12"
03"
1i!
0j!
0k!
0$!
1:!
10!
0&!
1G!
1o
0J!
0F!
1P!
1N!
1E!
0I!
1H!
1F!
#520000
0#
0m
#525000
1#
1m
1k!
1B!
18!
1.!
1$!
1r
0o
00!
0:!
0E!
1I!
0H!
0F!
#530000
0#
0m
#535000
1#
1m
13"
1j!
0k!
0B!
08!
0.!
0$!
1T!
0O!
0G!
1o
1J!
1F!
1&!
#540000
0#
0m
#545000
1#
1m
11"
02"
03"
1k!
1B!
18!
1.!
1$!
1t
1G!
0s
0r
0o
0J!
0F!
0P!
0N!
1U!
1S!
0&!
1v
0u
#550000
0#
0m
#555000
1#
1m
13"
1g!
0h!
0i!
0j!
0k!
0B!
08!
0.!
0$!
0t
1D!
1:!
10!
1&!
1O!
0G!
1o
1u
1J!
1F!
1E!
0&!
00!
0:!
0D!
0u
0E!
0I!
1H!
1M!
0F!
1I!
0H!
0M!
1N!
1F!
0N!
#560000
0#
0m
#565000
1#
1m
12"
03"
1k!
1G!
1r
0o
0J!
0F!
1P!
1N!
#570000
0#
0m
#575000
1#
1m
13"
1j!
0k!
1^!
0Y!
0T!
0O!
0G!
1o
1J!
1F!
#580000
0#
0m
#585000
1#
1m
1/"
00"
01"
02"
03"
1k!
1$!
1G!
1s
0r
0o
0J!
0F!
0P!
0N!
0U!
0S!
0Z!
0X!
1_!
1]!
1&!
#590000
0#
0m
#595000
1#
1m
13"
1i!
0j!
0k!
0$!
1:!
10!
0&!
1O!
0G!
1o
1J!
1F!
1E!
0I!
1H!
1M!
0F!
1N!
#600000
0#
0m
#605000
1#
1m
1k!
1B!
18!
1.!
1$!
1r
0o
00!
0:!
0E!
1I!
0H!
0M!
1F!
0N!
#610000
0#
0m
#615000
1#
1m
12"
03"
1j!
0k!
0B!
08!
0.!
0$!
1G!
1o
0J!
0F!
1P!
1N!
1&!
#620000
0#
0m
#625000
1#
1m
13"
1k!
1B!
18!
1.!
1$!
1t
1T!
0O!
0G!
0s
0r
0o
1J!
1F!
0&!
1u
#630000
0#
0m
#635000
1#
1m
11"
02"
03"
1h!
0i!
0j!
0k!
0B!
08!
0.!
0$!
0t
1D!
1:!
10!
1&!
1G!
1o
0v
0u
0J!
0F!
0P!
0N!
1U!
1S!
1E!
0&!
00!
0:!
0D!
1v
1u
0E!
0I!
1H!
1F!
1I!
0H!
0F!
#640000
0#
0m
#645000
1#
1m
13"
1k!
1O!
0G!
1r
0o
1J!
1F!
#650000
0#
0m
#655000
1#
1m
12"
03"
1j!
0k!
1G!
1o
0J!
0F!
1P!
1N!
#660000
0#
0m
#665000
1#
1m
13"
1k!
1$!
1Y!
0T!
0O!
0G!
1s
0r
0o
1J!
1F!
1&!
#670000
0#
0m
#675000
1#
1m
10"
01"
02"
03"
1i!
0j!
0k!
0$!
1:!
10!
0&!
1G!
1o
0J!
0F!
0P!
0N!
0U!
0S!
1Z!
1X!
#680000
0#
0m
#685000
1#
1m
13"
1k!
1B!
18!
1.!
1$!
1O!
0G!
1r
0o
1J!
1F!
00!
0:!
#690000
0#
0m
#695000
1#
1m
12"
03"
1j!
0k!
0B!
08!
0.!
0$!
1G!
1o
0J!
0F!
1P!
1N!
1&!
#700000
0#
0m
#705000
1#
1m
13"
1k!
1B!
18!
1.!
1$!
1w
1t
1T!
0O!
0G!
0s
0r
0o
1J!
1F!
1K!
0I!
1H!
0&!
0v
0u
1x
#710000
0#
0m
#715000
1#
1m
0g!
0h!
0i!
0j!
0k!
1`!
1[!
0V!
1Q!
1L!
1y
1L
1M
1N
0O
1P
1Q
0B!
08!
0.!
0$!
0w
0t
1D!
1:!
10!
1&!
0K!
0q
1@
1A
0B
1C
1D
1E
1E!
0&!
00!
0:!
0D!
0E!
1M!
0F!
1R!
0M!
0N!
1F!
0R!
1S!
1N!
0S!
#720000
0#
0m
#725000
1#
1m
#730000
0#
0m
#735000
1#
1m
#740000
0#
0m
#745000
1#
1m
#750000
0#
0m
#755000
1#
1m
#760000
0#
0m
#765000
1#
1m
#770000
0#
0m
#775000
1#
1m
#780000
0#
0m
#785000
1#
1m
#790000
0#
0m
#795000
1#
1m
#800000
0#
0m
#805000
1#
1m
#810000
0#
0m
#815000
1#
1m
#820000
0#
0m
#825000
1#
1m
#830000
0#
0m
#835000
1#
1m
#840000
0#
0m
#845000
1#
1m
#850000
0#
0m
#855000
1#
1m
#860000
0#
0m
#865000
1#
1m
#870000
0#
0m
#875000
1#
1m
#880000
0#
0m
#885000
1#
1m
#890000
0#
0m
#895000
1#
1m
#900000
0#
0m
#905000
1#
1m
#910000
0#
0m
#915000
1#
1m
#920000
0#
0m
#925000
1#
1m
#930000
0#
0m
#935000
1#
1m
#940000
0#
0m
#945000
1#
1m
#950000
0#
0m
#955000
1#
1m
#960000
0#
0m
#965000
1#
1m
#970000
0#
0m
#975000
1#
1m
#980000
0#
0m
#985000
1#
1m
#990000
0#
0m
#995000
1#
1m
